{
"AIDcontract":"0ad6f7c0a484d000980d2694f74bf8770f2b02dbcace460b6a2a7fa2bf215ce7",
"ACcontract":"9d4a9b2f615c2c1589102a4e716f317ccc833b9867513d854a4ac31078b27663",
"AIDdb":"myAID.json",
"ACdb":"myAC.json"
}